Digital_lC_Design_Diploma/My_study_digital_diploma/verilog/session_3/Ass3/ALU.vcd
$date
	Sat Mar 16 23:40:50 2024
$end
$version
	ModelSim Version 10.1d
$end
$timescale
	1ps
$end
$scope module ALU_tb $end
$var parameter 32 ! T $end
$var reg 16 " A_tb [15:0] $end
$var reg 16 # B_tb [15:0] $end
$var reg 4 $ ALU_FUN_tb [3:0] $end
$var reg 1 % CLK_tb $end
$var wire 1 & ALU_OUT_tb [15] $end
$var wire 1 ' ALU_OUT_tb [14] $end
$var wire 1 ( ALU_OUT_tb [13] $end
$var wire 1 ) ALU_OUT_tb [12] $end
$var wire 1 * ALU_OUT_tb [11] $end
$var wire 1 + ALU_OUT_tb [10] $end
$var wire 1 , ALU_OUT_tb [9] $end
$var wire 1 - ALU_OUT_tb [8] $end
$var wire 1 . ALU_OUT_tb [7] $end
$var wire 1 / ALU_OUT_tb [6] $end
$var wire 1 0 ALU_OUT_tb [5] $end
$var wire 1 1 ALU_OUT_tb [4] $end
$var wire 1 2 ALU_OUT_tb [3] $end
$var wire 1 3 ALU_OUT_tb [2] $end
$var wire 1 4 ALU_OUT_tb [1] $end
$var wire 1 5 ALU_OUT_tb [0] $end
$var wire 1 6 Arith_Flag_tb $end
$var wire 1 7 Logic_Flag_tb $end
$var wire 1 8 CMP_Flag_tb $end
$var wire 1 9 Shift_Flag_tb $end
$var wire 1 : flags [3] $end
$var wire 1 ; flags [2] $end
$var wire 1 < flags [1] $end
$var wire 1 = flags [0] $end
$scope module uut $end
$var wire 1 > A [15] $end
$var wire 1 ? A [14] $end
$var wire 1 @ A [13] $end
$var wire 1 A A [12] $end
$var wire 1 B A [11] $end
$var wire 1 C A [10] $end
$var wire 1 D A [9] $end
$var wire 1 E A [8] $end
$var wire 1 F A [7] $end
$var wire 1 G A [6] $end
$var wire 1 H A [5] $end
$var wire 1 I A [4] $end
$var wire 1 J A [3] $end
$var wire 1 K A [2] $end
$var wire 1 L A [1] $end
$var wire 1 M A [0] $end
$var wire 1 N B [15] $end
$var wire 1 O B [14] $end
$var wire 1 P B [13] $end
$var wire 1 Q B [12] $end
$var wire 1 R B [11] $end
$var wire 1 S B [10] $end
$var wire 1 T B [9] $end
$var wire 1 U B [8] $end
$var wire 1 V B [7] $end
$var wire 1 W B [6] $end
$var wire 1 X B [5] $end
$var wire 1 Y B [4] $end
$var wire 1 Z B [3] $end
$var wire 1 [ B [2] $end
$var wire 1 \ B [1] $end
$var wire 1 ] B [0] $end
$var wire 1 ^ ALU_FUN [3] $end
$var wire 1 _ ALU_FUN [2] $end
$var wire 1 ` ALU_FUN [1] $end
$var wire 1 a ALU_FUN [0] $end
$var wire 1 b CLK $end
$var reg 16 c ALU_OUT [15:0] $end
$var reg 1 d Arith_Flag $end
$var reg 1 e Logic_Flag $end
$var reg 1 f CMP_Flag $end
$var reg 1 g Shift_Flag $end
$var reg 16 h ALU_OUT_reg [15:0] $end
$upscope $end
$upscope $end
$enddefinitions $end
#0
$dumpvars
b1010 "
b1010 #
b0 $
0%
b0 c
1d
0e
0f
0g
b10100 h
b1010 !
05
04
03
02
01
00
0/
0.
0-
0,
0+
0*
0)
0(
0'
0&
16
07
08
09
0=
0<
0;
1:
0b
0a
0`
0_
0^
0]
1\
0[
1Z
0Y
0X
0W
0V
0U
0T
0S
0R
0Q
0P
0O
0N
0M
1L
0K
1J
0I
0H
0G
0F
0E
0D
0C
0B
0A
0@
0?
0>
$end
#5
1%
1b
b10100 c
13
11
#10
b10100 "
b1 $
0%
1a
0L
1K
0J
1I
0b
b0 c
0d
b1010 h
1d
03
01
#15
1%
1b
b1010 c
14
12
#20
b1010 "
b10 $
0%
0a
1`
1L
0K
1J
0I
0b
b0 c
0d
b1100100 h
1d
04
02
#25
1%
1b
b1100100 c
13
10
1/
#30
b1100100 "
b101 #
b11 $
0%
1a
1]
0\
1[
0Z
0L
1K
0J
1H
1G
0b
b0 c
0d
b10100 h
1d
03
00
0/
#35
1%
1b
b10100 c
13
11
#40
b10010 "
b1010 #
b100 $
0%
0a
0`
1_
0]
1\
0[
1Z
1L
0K
1I
0H
0G
0b
b0 c
0d
b10 h
1e
03
01
06
17
1;
0:
#45
1%
1b
b10 c
14
#50
b10111 "
b1110 #
b101 $
0%
1a
1[
1M
1K
0b
b0 c
0e
b11111 h
1e
04
#55
1%
1b
b11111 c
15
14
13
12
11
#60
b1001 "
b11 #
b110 $
0%
0a
1`
1]
0[
0Z
0L
0K
1J
0I
0b
b0 c
0e
b1111111111111110 h
1e
05
04
03
02
01
#65
1%
1b
b1111111111111110 c
14
13
12
11
10
1/
1.
1-
1,
1+
1*
1)
1(
1'
1&
#70
b111 $
0%
1a
0b
b0 c
0e
b1111111111110100 h
1e
04
03
02
01
00
0/
0.
0-
0,
0+
0*
0)
0(
0'
0&
#75
1%
1b
b1111111111110100 c
13
11
10
1/
1.
1-
1,
1+
1*
1)
1(
1'
1&
#80
b1001001 "
b10111 #
b1000 $
0%
0a
0`
0_
1^
1[
1Y
1G
0b
b0 c
0e
b1011110 h
1e
03
01
00
0/
0.
0-
0,
0+
0*
0)
0(
0'
0&
#85
1%
1b
b1011110 c
14
13
12
11
1/
#90
b1001 "
b11 #
b1001 $
0%
1a
0[
0Y
0G
0b
b0 c
0e
b1111111111110101 h
1e
04
03
02
01
0/
#95
1%
1b
b1111111111110101 c
15
13
11
10
1/
1.
1-
1,
1+
1*
1)
1(
1'
1&
#100
b10100 "
b10100 #
b1010 $
0%
0a
1`
0]
0\
1[
1Y
0M
1K
0J
1I
0b
b0 c
0e
b1 h
1f
05
03
01
00
0/
0.
0-
0,
0+
0*
0)
0(
0'
0&
07
18
1<
0;
#105
1%
1b
b1 c
15
#110
b101000 "
b1011 $
0%
1a
0K
1J
0I
1H
0b
b0 c
0f
b10 h
1f
05
#115
1%
1b
b10 c
14
#120
b1100 $
0%
0a
0`
1_
0b
b0 c
0f
b0 h
1f
04
#125
1%
1b
#130
b10100 "
b1101 $
0%
1a
1K
0J
1I
0H
0b
0f
b1010 h
1g
08
19
1=
0<
#135
1%
1b
b1010 c
14
12
#140
b1110 $
0%
0a
1`
0b
b0 c
0g
b101000 h
1g
04
02
#145
1%
1b
b101000 c
12
10
#150
b10 "
b10 #
b1111 $
0%
1a
1\
0[
0Y
1L
0K
0I
0b
b0 c
0g
02
00
09
0=
#155
1%
1b
b101000 c
12
10
